Stat 470/670 Lecture 4
…
billboard_standard = read.csv("https://github.com/hadley/tidy-data/raw/master/data/billboard.csv", stringsAsFactors = FALSE)
billboard_tidy

## # A tibble: 317 × 83
##     year artis…¹ track time  genre date.ent…² date.pea…³ x1st.…⁴ x2nd.…⁵ x3rd.…⁶
##    <dbl> <chr>   <chr> <tim> <chr> <date>     <date>       <dbl>   <dbl>   <dbl>
##  1  2000 Destin… Inde… 03:38 Rock  2000-09-23 2000-11-18      78      63      49
##  2  2000 Santana Mari… 04:18 Rock  2000-02-12 2000-04-08      15       8       6
##  3  2000 Savage… I Kn… 04:07 Rock  1999-10-23 2000-01-29      71      48      43
##  4  2000 Madonna Music 03:45 Rock  2000-08-12 2000-09-16      41      23      18
##  5  2000 Aguile… Come… 03:38 Rock  2000-08-05 2000-10-14      57      47      45
##  6  2000 Janet   Does… 04:17 Rock  2000-06-17 2000-08-26      59      52      43
##  7  2000 Destin… Say … 04:31 Rock  1999-12-25 2000-03-18      83      83      44
##  8  2000 Iglesi… Be W… 03:36 Latin 2000-04-01 2000-06-24      63      45      34
##  9  2000 Sisqo   Inco… 03:52 Rock  2000-06-24 2000-08-12      77      66      61
## 10  2000 Lonest… Amaz… 04:25 Coun… 1999-06-05 2000-03-04      81      54      44
## # … with 307 more rows, 73 more variables: x4th.week <dbl>, x5th.week <dbl>,
## #   x6th.week <dbl>, x7th.week <dbl>, x8th.week <dbl>, x9th.week <dbl>,
## #   x10th.week <dbl>, x11th.week <dbl>, x12th.week <dbl>, x13th.week <dbl>,
## #   x14th.week <dbl>, x15th.week <dbl>, x16th.week <dbl>, x17th.week <dbl>,
## #   x18th.week <dbl>, x19th.week <dbl>, x20th.week <dbl>, x21st.week <dbl>,
## #   x22nd.week <dbl>, x23rd.week <dbl>, x24th.week <dbl>, x25th.week <dbl>,
## #   x26th.week <dbl>, x27th.week <dbl>, x28th.week <dbl>, x29th.week <dbl>, …
…
First let’s try without pipes.

We need to separate the time into minutes and seconds. For this we
can use separate:

billboard_min_sec = separate(billboard_tidy, time,
    into = c("minutes", "seconds"), sep = ":", remove = FALSE)

We can look the columns we have created, plus the original column, to
make sure the operation was performed correctly. To look at just a
couple of columns, we can use select:

select(billboard_min_sec, time, minutes, seconds)

## # A tibble: 317 × 3
##    time  minutes seconds
##    <chr> <chr>   <chr>  
##  1 3:38  3       38     
##  2 4:18  4       18     
##  3 4:07  4       07     
##  4 3:45  3       45     
##  5 3:38  3       38     
##  6 4:17  4       17     
##  7 4:31  4       31     
##  8 3:36  3       36     
##  9 3:52  3       52     
## 10 4:25  4       25     
## # … with 307 more rows

Then we need to add minutes and seconds together to get time in
minutes. For this we can use mutate:

billboard_time_in_sec = mutate(billboard_min_sec,
    time_in_seconds = as.numeric(minutes) * 60 + as.numeric(seconds))

Again, let’s look at the tibble to make sure the operation was done
right:

select(billboard_time_in_sec, time, minutes, seconds, time_in_seconds)

## # A tibble: 317 × 4
##    time  minutes seconds time_in_seconds
##    <chr> <chr>   <chr>             <dbl>
##  1 3:38  3       38                  218
##  2 4:18  4       18                  258
##  3 4:07  4       07                  247
##  4 3:45  3       45                  225
##  5 3:38  3       38                  218
##  6 4:17  4       17                  257
##  7 4:31  4       31                  271
##  8 3:36  3       36                  216
##  9 3:52  3       52                  232
## 10 4:25  4       25                  265
## # … with 307 more rows
…
The majority of Hot 100 songs (about three quarters) are between 3:15
and 4:30.

But maybe we’re unfairly penalizing songs that are on the charts for
a long time: they’re only represented once in our histogram even though
they are in the top 100 for multiple weeks.

If we want to investigate this, we need to make one row in our tibble
for each week:

billboard_long = billboard %>% pivot_longer(x1st.week:x76th.week, names_to = "week", values_to = "rank", values_drop_na = TRUE)
billboard_long

## # A tibble: 5,307 × 12
##     year artis…¹ track time  minutes seconds genre date.ent…² date.pea…³ time_…⁴
##    <dbl> <chr>   <chr> <chr> <chr>   <chr>   <chr> <date>     <date>       <dbl>
##  1  2000 Destin… Inde… 3:38  3       38      Rock  2000-09-23 2000-11-18     218
##  2  2000 Destin… Inde… 3:38  3       38      Rock  2000-09-23 2000-11-18     218
##  3  2000 Destin… Inde… 3:38  3       38      Rock  2000-09-23 2000-11-18     218
##  4  2000 Destin… Inde… 3:38  3       38      Rock  2000-09-23 2000-11-18     218
##  5  2000 Destin… Inde… 3:38  3       38      Rock  2000-09-23 2000-11-18     218
##  6  2000 Destin… Inde… 3:38  3       38      Rock  2000-09-23 2000-11-18     218
##  7  2000 Destin… Inde… 3:38  3       38      Rock  2000-09-23 2000-11-18     218
##  8  2000 Destin… Inde… 3:38  3       38      Rock  2000-09-23 2000-11-18     218
##  9  2000 Destin… Inde… 3:38  3       38      Rock  2000-09-23 2000-11-18     218
## 10  2000 Destin… Inde… 3:38  3       38      Rock  2000-09-23 2000-11-18     218
## # … with 5,297 more rows, 2 more variables: week <chr>, rank <dbl>, and
## #   abbreviated variable names ¹​artist.inverted, ²​date.entered, ³​date.peaked,
## #   ⁴​time_in_seconds
…
