Stat 470/670 Lecture 8: Smoothing bivariate data
…
and the fitted value for the LOESS smoother at \(x_0\) is \(\hat \beta_0 + \hat \beta_1 x_0 + \hat \beta_2 x_0^2\).

The analogous procedure works for any integer value of \(\lambda\).

The procedure described above gives a fitted value of the smoother at one point; and we need to do all the weight and coefficient computations for every point at which we want to evaluate the smoother.

LOESS in R

We’ll look at the economics dataset (in ggplot2).

It looks like this:

economics

## # A tibble: 574 x 7
##    date         pce    pop psavert uempmed unemploy date_numeric
##    <date>     <dbl>  <dbl>   <dbl>   <dbl>    <dbl>        <dbl>
##  1 1967-07-01  507. 198712    12.6     4.5     2944         -915
##  2 1967-08-01  510. 198911    12.6     4.7     2945         -884
##  3 1967-09-01  516. 199113    11.9     4.6     2958         -853
##  4 1967-10-01  512. 199311    12.9     4.9     3143         -823
##  5 1967-11-01  517. 199498    12.8     4.7     3066         -792
##  6 1967-12-01  525. 199657    11.8     4.8     3018         -762
##  7 1968-01-01  531. 199808    11.7     5.1     2878         -731
##  8 1968-02-01  534. 199920    12.3     4.5     3001         -700
##  9 1968-03-01  544. 200056    11.7     4.1     2877         -671
## 10 1968-04-01  544  200208    12.3     4.6     2709         -640
## # … with 564 more rows
…
