lecture09
…
You can also specify columns using the column numbers (not
recommended) or same syntax that select
uses (much more useful). The following are all equivalent:

french_fries |>
    pivot_longer(cols = 5:9)

## # A tibble: 3,480 × 6
##    time  treatment subject   rep name    value
##    <fct> <fct>     <fct>   <dbl> <chr>   <dbl>
##  1 1     1         3           1 potato    2.9
##  2 1     1         3           1 buttery   0  
##  3 1     1         3           1 grassy    0  
##  4 1     1         3           1 rancid    0  
##  5 1     1         3           1 painty    5.5
##  6 1     1         3           2 potato   14  
##  7 1     1         3           2 buttery   0  
##  8 1     1         3           2 grassy    0  
##  9 1     1         3           2 rancid    1.1
## 10 1     1         3           2 painty    0  
## # ℹ 3,470 more rows

french_fries |>
    pivot_longer(cols = c(potato, buttery, grassy, rancid, painty))

## # A tibble: 3,480 × 6
##    time  treatment subject   rep name    value
##    <fct> <fct>     <fct>   <dbl> <chr>   <dbl>
##  1 1     1         3           1 potato    2.9
##  2 1     1         3           1 buttery   0  
##  3 1     1         3           1 grassy    0  
##  4 1     1         3           1 rancid    0  
##  5 1     1         3           1 painty    5.5
##  6 1     1         3           2 potato   14  
##  7 1     1         3           2 buttery   0  
##  8 1     1         3           2 grassy    0  
##  9 1     1         3           2 rancid    1.1
## 10 1     1         3           2 painty    0  
## # ℹ 3,470 more rows

french_fries |> pivot_longer(cols = potato:painty)

## # A tibble: 3,480 × 6
##    time  treatment subject   rep name    value
##    <fct> <fct>     <fct>   <dbl> <chr>   <dbl>
##  1 1     1         3           1 potato    2.9
##  2 1     1         3           1 buttery   0  
##  3 1     1         3           1 grassy    0  
##  4 1     1         3           1 rancid    0  
##  5 1     1         3           1 painty    5.5
##  6 1     1         3           2 potato   14  
##  7 1     1         3           2 buttery   0  
##  8 1     1         3           2 grassy    0  
##  9 1     1         3           2 rancid    1.1
## 10 1     1         3           2 painty    0  
## # ℹ 3,470 more rows

french_fries |>
    pivot_longer(cols = -c(time, treatment, subject, rep))

## # A tibble: 3,480 × 6
##    time  treatment subject   rep name    value
##    <fct> <fct>     <fct>   <dbl> <chr>   <dbl>
##  1 1     1         3           1 potato    2.9
##  2 1     1         3           1 buttery   0  
##  3 1     1         3           1 grassy    0  
##  4 1     1         3           1 rancid    0  
##  5 1     1         3           1 painty    5.5
##  6 1     1         3           2 potato   14  
##  7 1     1         3           2 buttery   0  
##  8 1     1         3           2 grassy    0  
##  9 1     1         3           2 rancid    1.1
## 10 1     1         3           2 painty    0  
## # ℹ 3,470 more rows

You can make the output slightly nicer by specifying variable names
and value names with names_to and
values_to:

french_fries |>
    pivot_longer(cols = potato:painty,
                 names_to = "flavor", values_to = "flavor_intensity")

## # A tibble: 3,480 × 6
##    time  treatment subject   rep flavor  flavor_intensity
##    <fct> <fct>     <fct>   <dbl> <chr>              <dbl>
##  1 1     1         3           1 potato               2.9
##  2 1     1         3           1 buttery              0  
##  3 1     1         3           1 grassy               0  
##  4 1     1         3           1 rancid               0  
##  5 1     1         3           1 painty               5.5
##  6 1     1         3           2 potato              14  
##  7 1     1         3           2 buttery              0  
##  8 1     1         3           2 grassy               0  
##  9 1     1         3           2 rancid               1.1
## 10 1     1         3           2 painty               0  
## # ℹ 3,470 more rows
…
