Stat 470/670 Lecture 23: Count responses and Poisson regression
…
We won't print out the full results because we now have a coefficient for each precinct. Let's just first check the deviance has gone down significantly:

deviance(eth.glm)

## [1] 45437.35

deviance(precinct.glm)

## [1] 3427.14

Now look at the first few coefficients (and their standard errors):

tidy(precinct.glm)

## # A tibble: 77 x 5
##    term              estimate std.error statistic   p.value
##    <chr>                <dbl>     <dbl>     <dbl>     <dbl>
##  1 (Intercept)        -1.38     0.0510     -27.0  7.21e-161
##  2 ethHispanic         0.0102   0.00680      1.50 1.34e-  1
##  3 ethwhite           -0.419    0.00943    -44.4  0.       
##  4 factor(precinct)2  -0.149    0.0740      -2.01 4.41e-  2
##  5 factor(precinct)3   0.560    0.0568       9.87 5.87e- 23
##  6 factor(precinct)4   1.21     0.0575      21.0  3.03e- 98
##  7 factor(precinct)5   0.283    0.0568       4.98 6.34e-  7
##  8 factor(precinct)6   1.14     0.0580      19.7  1.72e- 86
##  9 factor(precinct)7   0.218    0.0643       3.39 6.96e-  4
## 10 factor(precinct)8  -0.391    0.0569      -6.87 6.51e- 12
## # ... with 67 more rows
…
If the model were correct, this QQ plot should be close to a line through the origin with slope 1, and this is not. The real residuals are much more spread out/have much larger variance than the residuals in the simulation.

The simulation here is overkill, since we understand the Poisson fairly well and already know the data is overdispersed. However, the more complicated your model gets, the more useful this kind of simulation is as a sanity check.

Fixing overdispersion

The quickest fix is to use the quasipoisson family instead of the Poisson.

precinct.quasi = glm(stops ~ eth + factor(precinct), family = quasipoisson, offset = log(past.arrests), data = frisk.sum)
tidy(precinct.quasi)

## # A tibble: 77 x 5
##    term              estimate std.error statistic  p.value
##    <chr>                <dbl>     <dbl>     <dbl>    <dbl>
##  1 (Intercept)        -1.38      0.239     -5.78  4.33e- 8
##  2 ethHispanic         0.0102    0.0318     0.320 7.49e- 1
##  3 ethwhite           -0.419     0.0441    -9.49  5.49e-17
##  4 factor(precinct)2  -0.149     0.346     -0.430 6.68e- 1
##  5 factor(precinct)3   0.560     0.266      2.11  3.66e- 2
##  6 factor(precinct)4   1.21      0.269      4.50  1.38e- 5
##  7 factor(precinct)5   0.283     0.266      1.06  2.89e- 1
##  8 factor(precinct)6   1.14      0.272      4.21  4.35e- 5
##  9 factor(precinct)7   0.218     0.301      0.725 4.70e- 1
## 10 factor(precinct)8  -0.391     0.266     -1.47  1.44e- 1
## # ... with 67 more rows
…
##    Min. 1st Qu.  Median    Mean 3rd Qu.    Max. 
##       0       0       0       0       0       0

So the quasipoission doesn't change the fit, only the variance and the standard errors.

For interpretation, it may be useful to refit the model changing the order of levels in eth to use whites as a baseline.

frisk.sum.relev = frisk.sum %>% mutate(eth.releveled = factor(eth, levels = c("white", "black", "Hispanic")))
precinct.quasi2 = glm(stops ~ eth.releveled + factor(precinct),
    family = quasipoisson, offset = log(past.arrests),
    data = frisk.sum.relev)
tidy(precinct.quasi2)

## # A tibble: 77 x 5
##    term                  estimate std.error statistic  p.value
##    <chr>                    <dbl>     <dbl>     <dbl>    <dbl>
##  1 (Intercept)             -1.80     0.241     -7.46  6.81e-12
##  2 eth.releveledblack       0.419    0.0441     9.49  5.49e-17
##  3 eth.releveledHispanic    0.429    0.0449     9.57  3.49e-17
##  4 factor(precinct)2       -0.149    0.346     -0.430 6.68e- 1
##  5 factor(precinct)3        0.560    0.266      2.11  3.66e- 2
##  6 factor(precinct)4        1.21     0.269      4.50  1.38e- 5
##  7 factor(precinct)5        0.283    0.266      1.06  2.89e- 1
##  8 factor(precinct)6        1.14     0.272      4.21  4.35e- 5
##  9 factor(precinct)7        0.218    0.301      0.725 4.70e- 1
## 10 factor(precinct)8       -0.391    0.266     -1.47  1.44e- 1
## # ... with 67 more rows
…
