Stat 470/670 Lecture 4
…
## See spec(...) for full column specifications.

billboard_standard = read.csv("https://github.com/hadley/tidy-data/raw/master/data/billboard.csv", stringsAsFactors = FALSE)
billboard_tidy

## # A tibble: 317 x 83
##     year artist.inverted track time  genre date.entered date.peaked
##    <int> <chr>           <chr> <tim> <chr> <date>       <date>     
##  1  2000 Destiny's Child Inde… 03:38 Rock  2000-09-23   2000-11-18 
##  2  2000 Santana         Mari… 04:18 Rock  2000-02-12   2000-04-08 
##  3  2000 Savage Garden   I Kn… 04:07 Rock  1999-10-23   2000-01-29 
##  4  2000 Madonna         Music 03:45 Rock  2000-08-12   2000-09-16 
##  5  2000 Aguilera, Chri… Come… 03:38 Rock  2000-08-05   2000-10-14 
##  6  2000 Janet           Does… 04:17 Rock  2000-06-17   2000-08-26 
##  7  2000 Destiny's Child Say … 04:31 Rock  1999-12-25   2000-03-18 
##  8  2000 Iglesias, Enri… Be W… 03:36 Latin 2000-04-01   2000-06-24 
##  9  2000 Sisqo           Inco… 03:52 Rock  2000-06-24   2000-08-12 
## 10  2000 Lonestar        Amaz… 04:25 Coun… 1999-06-05   2000-03-04 
## # ... with 307 more rows, and 76 more variables: x1st.week <int>,
## #   x2nd.week <int>, x3rd.week <int>, x4th.week <int>, x5th.week <int>,
## #   x6th.week <int>, x7th.week <int>, x8th.week <int>, x9th.week <int>,
## #   x10th.week <int>, x11th.week <int>, x12th.week <int>,
## #   x13th.week <int>, x14th.week <int>, x15th.week <int>,
## #   x16th.week <int>, x17th.week <int>, x18th.week <int>,
## #   x19th.week <int>, x20th.week <int>, x21st.week <int>,
## #   x22nd.week <int>, x23rd.week <int>, x24th.week <int>,
## #   x25th.week <int>, x26th.week <int>, x27th.week <int>,
…
I'll show you how to do this two ways, with and without pipes (the %>% function in the magrittr package).

First let's try without pipes.

We need to separate the time into minutes and seconds. For this we can use separate:

billboard_min_sec = separate(billboard_tidy, time,
    into = c("minutes", "seconds"), sep = ":", remove = FALSE)

We can look the columns we have created, plus the original column, to make sure the operation was performed correctly. To look at just a couple of columns, we can use select:

select(billboard_min_sec, time, minutes, seconds)

## # A tibble: 317 x 3
##    time  minutes seconds
##    <chr> <chr>   <chr>  
##  1 3:38  3       38     
##  2 4:18  4       18     
##  3 4:07  4       07     
##  4 3:45  3       45     
##  5 3:38  3       38     
##  6 4:17  4       17     
##  7 4:31  4       31     
##  8 3:36  3       36     
##  9 3:52  3       52     
## 10 4:25  4       25     
## # ... with 307 more rows

Then we need to add minutes and seconds together to get time in minutes. For this we can use mutate:

billboard_time_in_sec = mutate(billboard_min_sec,
    time_in_seconds = as.numeric(minutes) * 60 + as.numeric(seconds))

Again, let's look at the tibble to make sure the operation was done right:

select(billboard_time_in_sec, time, minutes, seconds, time_in_seconds)

## # A tibble: 317 x 4
##    time  minutes seconds time_in_seconds
##    <chr> <chr>   <chr>             <dbl>
##  1 3:38  3       38                  218
##  2 4:18  4       18                  258
##  3 4:07  4       07                  247
##  4 3:45  3       45                  225
##  5 3:38  3       38                  218
##  6 4:17  4       17                  257
##  7 4:31  4       31                  271
##  8 3:36  3       36                  216
##  9 3:52  3       52                  232
## 10 4:25  4       25                  265
## # ... with 307 more rows
…
The majority of Hot 100 songs (about three quarters) are between 3:15 and 4:30.

But maybe we're unfairly penalizing songs that are on the charts for a long time: they're only represented once in our histogram even though they are in the top 100 for multiple weeks.

If we want to investigate this, we need to make one row in our tibble for each week:

billboard_long = billboard %>% gather(week, rank, x1st.week:x76th.week, na.rm = TRUE)
billboard_long

## # A tibble: 5,307 x 12
##     year artist.inverted track time  minutes seconds genre date.entered
##  * <int> <chr>           <chr> <chr> <chr>   <chr>   <chr> <date>      
##  1  2000 Destiny's Child Inde… 3:38  3       38      Rock  2000-09-23  
##  2  2000 Santana         Mari… 4:18  4       18      Rock  2000-02-12  
##  3  2000 Savage Garden   I Kn… 4:07  4       07      Rock  1999-10-23  
##  4  2000 Madonna         Music 3:45  3       45      Rock  2000-08-12  
##  5  2000 Aguilera, Chri… Come… 3:38  3       38      Rock  2000-08-05  
##  6  2000 Janet           Does… 4:17  4       17      Rock  2000-06-17  
##  7  2000 Destiny's Child Say … 4:31  4       31      Rock  1999-12-25  
##  8  2000 Iglesias, Enri… Be W… 3:36  3       36      Latin 2000-04-01  
##  9  2000 Sisqo           Inco… 3:52  3       52      Rock  2000-06-24  
## 10  2000 Lonestar        Amaz… 4:25  4       25      Coun… 1999-06-05  
## # ... with 5,297 more rows, and 4 more variables: date.peaked <date>,
## #   time_in_seconds <dbl>, week <chr>, rank <chr>
…
