Stat 610 lecture 8, Split/apply/combine part 2
…
variables describes the variables used to split the data, and you specify them as .(var1, var2, ... , varN) 

 You can give it a single factor variable, in which case the data is split by the levels of that factor, or several factor variables, in which case the data is split on all combinations of those factors. 

 The syntax is special to indicate that the variables are taken first from the data frame in data and then, if they aren’t found there, from the global environment.

fun is the function to apply to each split of the data.

For example: Star Wars

data(starwars, package = "dplyr")
starwars

## # A tibble: 87 x 13
##    name  height  mass hair_color skin_color eye_color birth_year gender
##    <chr>  <int> <dbl> <chr>      <chr>      <chr>          <dbl> <chr> 
##  1 Luke…    172    77 blond      fair       blue            19   male  
##  2 C-3PO    167    75 <NA>       gold       yellow         112   <NA>  
##  3 R2-D2     96    32 <NA>       white, bl… red             33   <NA>  
##  4 Dart…    202   136 none       white      yellow          41.9 male  
##  5 Leia…    150    49 brown      light      brown           19   female
##  6 Owen…    178   120 brown, gr… light      blue            52   male  
##  7 Beru…    165    75 brown      light      blue            47   female
##  8 R5-D4     97    32 <NA>       white, red red             NA   <NA>  
##  9 Bigg…    183    84 black      light      brown           24   male  
## 10 Obi-…    182    77 auburn, w… fair       blue-gray       57   male  
## # … with 77 more rows, and 5 more variables: homeworld <chr>, species <chr>,
## #   films <list>, vehicles <list>, starships <list>
…
group_var is a factor variable describing how the data should be split.

expression is an expression that should be evaluated on each subset of the data. It will be evaluated in an environment where the columns of the data frame are attached, so your expression can be in terms of the columns of the data frame.

Note that expression is not a function here.

Star wars example again:

What is the average height in each world?

library(dplyr)
starwars %>% group_by(homeworld) %>% summarise(avg_height = mean(height))

## # A tibble: 49 x 2
##    homeworld      avg_height
##    <chr>               <dbl>
##  1 Alderaan             176.
##  2 Aleen Minor           79 
##  3 Bespin               175 
##  4 Bestine IV           180 
##  5 Cato Neimoidia       191 
##  6 Cerea                198 
##  7 Champala             196 
##  8 Chandrila            150 
##  9 Concord Dawn         183 
## 10 Corellia             175 
## # … with 39 more rows

What fraction of individuals on each world have yellow eyes?

starwars %>%
    group_by(homeworld) %>%
    summarise(frac_yellow_eyes = sum(eye_color == "yellow") / length(eye_color))

## # A tibble: 49 x 2
##    homeworld      frac_yellow_eyes
##    <chr>                     <dbl>
##  1 Alderaan                      0
##  2 Aleen Minor                   0
##  3 Bespin                        0
##  4 Bestine IV                    0
##  5 Cato Neimoidia                0
##  6 Cerea                         1
##  7 Champala                      0
##  8 Chandrila                     0
##  9 Concord Dawn                  0
## 10 Corellia                      0
## # … with 39 more rows
…
