Stat 470/670 Lecture 8: Smoothing bivariate data
…
and the fitted value for the LOESS smoother at \(x_0\) is \(\hat \beta_0 + \hat \beta_1 x_0 + \hat \beta_2 x_0^2\).

The analogous procedure works for any integer value of \(\lambda\).

The procedure described above gives a fitted value of the smoother at one point; and we need to do all the weight and coefficient computations for every point at which we want to evaluate the smoother.

LOESS in R

We'll look at the economics dataset (in ggplot2).

It looks like this:

economics

## # A tibble: 574 x 6
##    date         pce    pop psavert uempmed unemploy
##    <date>     <dbl>  <int>   <dbl>   <dbl>    <int>
##  1 1967-07-01  507. 198712    12.5     4.5     2944
##  2 1967-08-01  510. 198911    12.5     4.7     2945
##  3 1967-09-01  516. 199113    11.7     4.6     2958
##  4 1967-10-01  513. 199311    12.5     4.9     3143
##  5 1967-11-01  518. 199498    12.5     4.7     3066
##  6 1967-12-01  526. 199657    12.1     4.8     3018
##  7 1968-01-01  532. 199808    11.7     5.1     2878
##  8 1968-02-01  534. 199920    12.2     4.5     3001
##  9 1968-03-01  545. 200056    11.6     4.1     2877
## 10 1968-04-01  545. 200208    12.2     4.6     2709
## # ... with 564 more rows
…
