…
``` r
augment(lm.poly) |> 
  mutate(carat_bin = cut(carat, breaks = seq(.3, 2.5, by = .1), right = FALSE)) |>
  group_by(carat_bin) |> 
  summarise(mean(.resid))
```

```
## # A tibble: 23 × 2
##    carat_bin `mean(.resid)`
##    <fct>              <dbl>
##  1 [0.3,0.4)        0.00477
##  2 [0.4,0.5)       -0.0153 
##  3 [0.5,0.6)        0.0324 
##  4 [0.6,0.7)       -0.0258 
##  5 [0.7,0.8)       -0.0131 
##  6 [0.8,0.9)       -0.0463 
##  7 [0.9,1)         -0.0411 
##  8 [1,1.1)          0.0326 
##  9 [1.1,1.2)       -0.00994
## 10 [1.2,1.3)       -0.0279 
## # ℹ 13 more rows
```
…
The procedure described above gives a fitted value of the smoother at one point; and we need to do all the weight and coefficient computations for every point at which we want to evaluate the smoother.

## LOESS in R

We'll look at the `economics` dataset (in ggplot2).

It looks like this:


``` r
economics
```

```
## # A tibble: 574 × 6
##    date         pce    pop psavert uempmed unemploy
##    <date>     <dbl>  <dbl>   <dbl>   <dbl>    <dbl>
##  1 1967-07-01  507. 198712    12.6     4.5     2944
##  2 1967-08-01  510. 198911    12.6     4.7     2945
##  3 1967-09-01  516. 199113    11.9     4.6     2958
##  4 1967-10-01  512. 199311    12.9     4.9     3143
##  5 1967-11-01  517. 199498    12.8     4.7     3066
##  6 1967-12-01  525. 199657    11.8     4.8     3018
##  7 1968-01-01  531. 199808    11.7     5.1     2878
##  8 1968-02-01  534. 199920    12.3     4.5     3001
##  9 1968-03-01  544. 200056    11.7     4.1     2877
## 10 1968-04-01  544  200208    12.3     4.6     2709
## # ℹ 564 more rows
```
…
